[gd_scene load_steps=3 format=2]

[ext_resource path="res://blokoj/asteroidoj/resursoj/ast_shards_0.glb" type="PackedScene" id=1]

[sub_resource type="ConcavePolygonShape" id=1]
data = PoolVector3Array( -8.1349, 7.6649, -7.0766, -11.3267, 7.27, -3.2423, -7.8834, 6.5942, -7.2347, -11.0655, 5.2684, 2.6561, -11.5771, 6.4397, 1.9198, -9.6817, 9.3232, 4.0041, -11.3267, 7.27, -3.2423, -9.6817, 9.3232, 4.0041, -11.5771, 6.4397, 1.9198, -8.3874, 2.9757, -3.3206, -7.8834, 6.5942, -7.2347, -11.3267, 7.27, -3.2423, -9.2407, 9.0672, -4.5441, -11.3267, 7.27, -3.2423, -8.1349, 7.6649, -7.0766, -6.6414, 7.3492, 0.485, -9.2407, 9.0672, -4.5441, -8.1349, 7.6649, -7.0766, -11.0655, 5.2684, 2.6561, -11.3267, 7.27, -3.2423, -11.5771, 6.4397, 1.9198, -6.8687, 3.3884, -5.1631, -7.8834, 6.5942, -7.2347, -8.3874, 2.9757, -3.3206, -9.6817, 9.3232, 4.0041, -6.6414, 7.3492, 0.485, -9.2996, 8.12, 4.6859, -9.1507, 10.0214, 2.443, -11.3267, 7.27, -3.2423, -9.2407, 9.0672, -4.5441, 2.6637, 8.2275, 0.6276, 4.3971, 8.1224, -0.4005, 6.363, 8.0869, 0.8786, 2.6637, 8.2275, 0.6276, 6.363, 8.0869, 0.8786, 4.6531, 9.485, 6.4923, 2.1071, 8.4976, 6.0098, 2.6637, 8.2275, 0.6276, 4.6531, 9.485, 6.4923, 2.1071, 8.4976, 6.0098, 4.6531, 9.485, 6.4923, 3.3772, 8.4068, 7.9339, 6.363, 8.0869, 0.8786, 8.6687, 7.0022, 5.3996, 6.5189, 8.8264, 7.2722, 4.7021, 6.0088, 9.6571, 0.7376, 3.2401, 6.0145, 1.6461, 5.3779, 7.9426, 8.6687, 7.0022, 5.3996, 7.6989, 6.3852, 8.0837, 6.5189, 8.8264, 7.2722, 5.4221, 3.2845, 7.7794, 0.7376, 3.2401, 6.0145, 4.7021, 6.0088, 9.6571, 0.7376, 3.2401, 6.0145, 0.4913, 4.9983, 5.1322, 1.6461, 5.3779, 7.9426, 1.6461, 5.3779, 7.9426, 0.4913, 4.9983, 5.1322, 2.1071, 8.4976, 6.0098, 2.6637, 8.2275, 0.6276, 2.1071, 8.4976, 6.0098, 0.4913, 4.9983, 5.1322, 4.3971, 8.1224, -0.4005, 4.0393, 4.3409, -0.9493, 6.363, 8.0869, 0.8786, 6.363, 8.0869, 0.8786, 6.3337, 3.263, 1.2325, 8.4917, 4.423, 4.4268, 6.363, 8.0869, 0.8786, 8.4917, 4.423, 4.4268, 8.6687, 7.0022, 5.3996, 8.4917, 4.423, 4.4268, 5.4221, 3.2845, 7.7794, 7.6989, 6.3852, 8.0837, 6.3337, 3.263, 1.2325, 5.4221, 3.2845, 7.7794, 8.4917, 4.423, 4.4268, 4.3971, 8.1224, -0.4005, 2.1702, 5.4085, 0.3805, 4.0393, 4.3409, -0.9493, 2.396, 3.2031, 1.746, 6.3337, 3.263, 1.2325, 4.0393, 4.3409, -0.9493, 0.4913, 4.9983, 5.1322, 2.396, 3.2031, 1.746, 2.1702, 5.4085, 0.3805, 2.6637, 8.2275, 0.6276, 2.1702, 5.4085, 0.3805, 4.3971, 8.1224, -0.4005, 6.363, 8.0869, 0.8786, 6.5189, 8.8264, 7.2722, 4.6531, 9.485, 6.4923, 4.6531, 9.485, 6.4923, 6.5189, 8.8264, 7.2722, 3.3772, 8.4068, 7.9339, 7.6989, 6.3852, 8.0837, 4.7021, 6.0088, 9.6571, 6.5189, 8.8264, 7.2722, 5.4221, 3.2845, 7.7794, 4.7021, 6.0088, 9.6571, 7.6989, 6.3852, 8.0837, 6.5189, 8.8264, 7.2722, 4.7021, 6.0088, 9.6571, 3.3772, 8.4068, 7.9339, 4.7021, 6.0088, 9.6571, 1.6461, 5.3779, 7.9426, 3.3772, 8.4068, 7.9339, 2.396, 3.2031, 1.746, 0.4913, 4.9983, 5.1322, 0.7376, 3.2401, 6.0145, 3.3772, 8.4068, 7.9339, 1.6461, 5.3779, 7.9426, 2.1071, 8.4976, 6.0098, 0.7376, 3.2401, 6.0145, 5.4221, 3.2845, 7.7794, 2.396, 3.2031, 1.746, 2.396, 3.2031, 1.746, 5.4221, 3.2845, 7.7794, 6.3337, 3.263, 1.2325, 4.0393, 4.3409, -0.9493, 6.3337, 3.263, 1.2325, 6.363, 8.0869, 0.8786, 8.4917, 4.423, 4.4268, 7.6989, 6.3852, 8.0837, 8.6687, 7.0022, 5.3996, 0.4913, 4.9983, 5.1322, 2.1702, 5.4085, 0.3805, 2.6637, 8.2275, 0.6276, 2.1702, 5.4085, 0.3805, 2.396, 3.2031, 1.746, 4.0393, 4.3409, -0.9493, 1.2856, -8.4422, -4.7455, 4.2904, -9.1046, -4.1913, 3.3186, -7.3432, -7.1334, 1.2856, -8.4422, -4.7455, 0.0395, -8.9229, -0.3363, 4.2904, -9.1046, -4.1913, 2.6118, -5.9819, 11.3619, -4.1596, -4.5181, 11.415, -2.2434, -4.2397, 12.0657, -4.1596, -4.5181, 11.415, -2.4892, -6.9244, 8.1778, -5.8141, -3.3886, 8.5134, 2.6118, -5.9819, 11.3619, -2.4892, -6.9244, 8.1778, -4.1596, -4.5181, 11.415, -2.4892, -6.9244, 8.1778, -1.0088, -6.9891, 6.3366, -4.2329, -5.7155, 5.7494, 2.6118, -5.9819, 11.3619, 0.1961, -1.5043, 8.7832, 2.2416, -2.9565, 9.0557, -1.0088, -6.9891, 6.3366, -2.4892, -6.9244, 8.1778, 3.4108, -6.6716, 8.4153, -5.8141, -3.3886, 8.5134, -2.4892, -6.9244, 8.1778, -4.2329, -5.7155, 5.7494, -4.2329, -5.7155, 5.7494, 0.1961, -1.5043, 8.7832, -5.8141, -3.3886, 8.5134, 10.4052, 2.9773, 3.572, 12.0524, 2.8359, 5.1428, 11.7206, 3.5105, 11.3798, 11.7206, 3.5105, 11.3798, 10.855, 0.6056, 13.7994, 8.9723, 3.2555, 12.2379, 12.0524, 2.8359, 5.1428, 10.9648, 1.5503, 1.6627, 13.5461, 2.033, 7.4035, 10.4052, 2.9773, 3.572, 11.7206, 3.5105, 11.3798, 8.2467, 4.519, 10.3253, 8.2467, 4.519, 10.3253, 11.7206, 3.5105, 11.3798, 8.9723, 3.2555, 12.2379, 10.9648, 1.5503, 1.6627, 12.0524, 2.8359, 5.1428, 10.4052, 2.9773, 3.572, 10.855, 0.6056, 13.7994, 10.9282, -0.9222, 13.211, 8.9723, 3.2555, 12.2379, 8.4455, 0.1876, 5.1001, 9.2584, -1.2658, 7.7895, 10.9648, 1.5503, 1.6627, 8.9723, 3.2555, 12.2379, 9.2584, -1.2658, 7.7895, 8.2467, 4.519, 10.3253, 13.5728, -1.9076, 9.0576, 13.278, 0.3212, 12.1688, 14.2116, 0.4491, 9.8751, 14.2116, 0.4491, 9.8751, 11.7206, 3.5105, 11.3798, 13.5461, 2.033, 7.4035, 10.855, 0.6056, 13.7994, 13.278, 0.3212, 12.1688, 10.9282, -0.9222, 13.211, 10.9282, -0.9222, 13.211, 13.278, 0.3212, 12.1688, 11.9888, -2.6754, 11.0149, 11.9888, -2.6754, 11.0149, 13.278, 0.3212, 12.1688, 13.5728, -1.9076, 9.0576, 4.5246, -1.9645, 1.3231, 1.8993, -1.8313, 3.439, 4.2575, 1.0163, 3.8278, 1.8993, -1.8313, 3.439, -3.2235, -2.2677, 0.7972, 1.2732, 0.1579, 4.8659, -3.2235, -2.2677, 0.7972, -4.0582, 0.8128, -1.4318, -2.1804, 0.5139, 3.1395, -2.1804, 0.5139, 3.1395, -4.0582, 0.8128, -1.4318, -2.9477, 1.4322, 0.9112, -3.2235, -2.2677, 0.7972, -3.8415, -2.138, -0.7428, -4.0582, 0.8128, -1.4318, 3.4944, -2.4771, 0.3322, -3.2235, -2.2677, 0.7972, 1.8993, -1.8313, 3.439, 5.1108, -0.711, 1.6692, 4.5246, -1.9645, 1.3231, 4.2575, 1.0163, 3.8278, 1.8993, -1.8313, 3.439, 1.2732, 0.1579, 4.8659, 4.2575, 1.0163, 3.8278, 3.4944, -2.4771, 0.3322, 1.8993, -1.8313, 3.439, 4.5246, -1.9645, 1.3231, -3.8415, -2.138, -0.7428, -3.2235, -2.2677, 0.7972, -2.8159, -2.2844, -2.6257, 4.2575, 1.0163, 3.8278, 1.9757, 0.4311, -1.3038, 5.1108, -0.711, 1.6692, 3.4944, -2.4771, 0.3322, 1.9757, 0.4311, -1.3038, -2.8159, -2.2844, -2.6257, -2.9477, 1.4322, 0.9112, 1.9757, 0.4311, -1.3038, 4.2575, 1.0163, 3.8278, -2.1804, 0.5139, 3.1395, 1.2732, 0.1579, 4.8659, -3.2235, -2.2677, 0.7972, -2.8159, -2.2844, -2.6257, -4.0582, 0.8128, -1.4318, -3.8415, -2.138, -0.7428, -5.8389, 4.7349, 7.3614, -5.2779, 4.2955, 1.9662, -2.5615, 5.8423, 8.9521, -5.0478, 4.1567, 9.4813, -5.8389, 4.7349, 7.3614, -2.5615, 5.8423, 8.9521, -2.5615, 5.8423, 8.9521, -1.5208, 3.9817, 10.617, -5.0478, 4.1567, 9.4813, -2.2987, 1.4778, 3.7652, -7.8801, 0.3723, 5.3366, -1.7065, -0.2186, 5.3743, -1.5208, 3.9817, 10.617, -1.7065, -0.2186, 5.3743, -0.5401, 0.8708, 10.1675, -5.2779, 4.2955, 1.9662, -5.8389, 4.7349, 7.3614, -7.8801, 0.3723, 5.3366, -7.0266, 1.0495, 8.0152, -7.8801, 0.3723, 5.3366, -5.8389, 4.7349, 7.3614, -7.8154, 8.2825, -2.0456, -5.2206, 9.8167, 4.1997, -5.0142, 5.6803, -0.6736, -3.4964, 6.4844, -4.9228, -5.1159, 7.9637, -5.6151, -5.0142, 5.6803, -0.6736, -3.0421, 8.313, -2.6173, -5.1159, 7.9637, -5.6151, -3.4964, 6.4844, -4.9228, 2.4921, 1.64, 16.6106, 0.0098, -1.1704, 17.1053, -1.7077, 3.2978, 14.8044, -1.7077, 3.2978, 14.8044, 0.0098, -1.1704, 17.1053, -3.7116, -0.7897, 14.9883, -1.7077, 3.2978, 14.8044, -3.7116, -0.7897, 14.9883, -4.2892, 0.1264, 13.0749, 1.1593, 3.0674, 15.587, -4.2892, 0.1264, 13.0749, 3.0762, -0.3416, 15.7363, 3.0762, -0.3416, 15.7363, 0.0098, -1.1704, 17.1053, 2.4921, 1.64, 16.6106, 1.1593, 3.0674, 15.587, 2.4921, 1.64, 16.6106, -1.7077, 3.2978, 14.8044, 8.7178, -4.9267, -9.2378, 12.6632, -6.0205, -6.4125, 9.0826, -3.7905, -9.639, 15.4971, -3.6762, -1.3775, 15.0139, -4.9916, -1.8508, 12.6605, -5.9165, 1.2989, 12.6632, -6.0205, -6.4125, 12.6605, -5.9165, 1.2989, 15.0139, -4.9916, -1.8508, 12.6718, -0.8277, -7.1369, 9.0826, -3.7905, -9.639, 12.6632, -6.0205, -6.4125, 9.6461, -6.3103, -6.7213, 12.6632, -6.0205, -6.4125, 8.7178, -4.9267, -9.2378, 10.227, -2.8543, -1.9828, 9.6461, -6.3103, -6.7213, 8.7178, -4.9267, -9.2378, 15.4971, -3.6762, -1.3775, 12.6632, -6.0205, -6.4125, 15.0139, -4.9916, -1.8508, 10.7214, -0.4548, -8.3733, 9.0826, -3.7905, -9.639, 12.6718, -0.8277, -7.1369, 12.6605, -5.9165, 1.2989, 10.227, -2.8543, -1.9828, 13.2784, -4.6106, 1.6966, 11.3266, -6.3156, -0.0128, 12.6632, -6.0205, -6.4125, 9.6461, -6.3103, -6.7213, 0.7703, 4.394, -10.3369, -1.2133, 4.2264, -7.7362, -1.6172, 2.2491, -10.8476, 0.7703, 4.394, -10.3369, 3.949, 6.4207, -7.8027, -1.2133, 4.2264, -7.7362, 0.4722, 11.1832, 0.7252, 3.7826, 12.2365, 1.0775, 3.6368, 9.1563, 2.836, 3.7826, 12.2365, 1.0775, 5.6136, 13.5452, -4.2014, 5.8929, 11.034, 1.7742, 5.6136, 13.5452, -4.2014, 6.1581, 10.4485, -6.5473, 7.4264, 11.4437, -1.7448, 7.4264, 11.4437, -1.7448, 6.1581, 10.4485, -6.5473, 7.138, 10.3195, -3.7085, 5.6136, 13.5452, -4.2014, 5.1976, 13.2021, -5.8221, 6.1581, 10.4485, -6.5473, 0.4722, 11.1832, 0.7252, 5.6136, 13.5452, -4.2014, 3.7826, 12.2365, 1.0775, 1.0158, 9.692, 1.8036, 0.4722, 11.1832, 0.7252, 3.6368, 9.1563, 2.836, 3.7826, 12.2365, 1.0775, 5.8929, 11.034, 1.7742, 3.6368, 9.1563, 2.836, 5.1976, 13.2021, -5.8221, 5.6136, 13.5452, -4.2014, 3.3415, 12.4917, -6.5833, 3.6368, 9.1563, 2.836, 1.908, 8.8453, -2.45, 1.0158, 9.692, 1.8036, 0.4722, 11.1832, 0.7252, 1.908, 8.8453, -2.45, 3.3415, 12.4917, -6.5833, 7.138, 10.3195, -3.7085, 1.908, 8.8453, -2.45, 3.6368, 9.1563, 2.836, 7.4264, 11.4437, -1.7448, 5.8929, 11.034, 1.7742, 5.6136, 13.5452, -4.2014, 3.3415, 12.4917, -6.5833, 6.1581, 10.4485, -6.5473, 5.1976, 13.2021, -5.8221, -2.0667, 9.5531, 5.8235, -2.2174, 9.0538, 7.646, -3.8849, 12.0255, 9.3598, -4.6201, 12.7342, 7.6517, -2.0667, 9.5531, 5.8235, -3.8849, 12.0255, 9.3598, -2.2174, 9.0538, 7.646, -3.9563, 9.7214, 10.1168, -3.8849, 12.0255, 9.3598, -6.4403, 12.0899, 9.3373, -6.9369, 10.8839, 5.7456, -6.5725, 12.0719, 7.2186, -3.9563, 9.7214, 10.1168, -5.3036, 10.7866, 10.4013, -3.8849, 12.0255, 9.3598, -6.9616, 10.1683, 8.9209, -6.9369, 10.8839, 5.7456, -6.4403, 12.0899, 9.3373, -6.5725, 12.0719, 7.2186, -6.9369, 10.8839, 5.7456, -4.6201, 12.7342, 7.6517, -2.0667, 9.5531, 5.8235, -4.6201, 12.7342, 7.6517, -6.9369, 10.8839, 5.7456, -2.0667, 9.5531, 5.8235, -3.6605, 7.652, 5.6339, -2.2174, 9.0538, 7.646, -2.2174, 9.0538, 7.646, -4.4943, 7.4311, 7.3717, -4.8334, 8.4872, 9.5547, -2.2174, 9.0538, 7.646, -4.8334, 8.4872, 9.5547, -3.9563, 9.7214, 10.1168, -4.8334, 8.4872, 9.5547, -6.9616, 10.1683, 8.9209, -5.3036, 10.7866, 10.4013, -4.4943, 7.4311, 7.3717, -6.9616, 10.1683, 8.9209, -4.8334, 8.4872, 9.5547, -2.0667, 9.5531, 5.8235, -3.8821, 9.0712, 5.1728, -3.6605, 7.652, 5.6339, -5.3512, 8.6983, 5.5492, -4.4943, 7.4311, 7.3717, -3.6605, 7.652, 5.6339, -6.9369, 10.8839, 5.7456, -5.3512, 8.6983, 5.5492, -3.8821, 9.0712, 5.1728, -5.3036, 10.7866, 10.4013, -6.4403, 12.0899, 9.3373, -3.8849, 12.0255, 9.3598, -6.9616, 10.1683, 8.9209, -6.4403, 12.0899, 9.3373, -5.3036, 10.7866, 10.4013, -3.8849, 12.0255, 9.3598, -6.4403, 12.0899, 9.3373, -4.6201, 12.7342, 7.6517, -6.4403, 12.0899, 9.3373, -6.5725, 12.0719, 7.2186, -4.6201, 12.7342, 7.6517, -6.9369, 10.8839, 5.7456, -6.9616, 10.1683, 8.9209, -5.3512, 8.6983, 5.5492, -5.3512, 8.6983, 5.5492, -6.9616, 10.1683, 8.9209, -4.4943, 7.4311, 7.3717, -3.6605, 7.652, 5.6339, -4.4943, 7.4311, 7.3717, -2.2174, 9.0538, 7.646, -4.8334, 8.4872, 9.5547, -5.3036, 10.7866, 10.4013, -3.9563, 9.7214, 10.1168, -6.9369, 10.8839, 5.7456, -3.8821, 9.0712, 5.1728, -2.0667, 9.5531, 5.8235, -3.8821, 9.0712, 5.1728, -5.3512, 8.6983, 5.5492, -3.6605, 7.652, 5.6339, -8.9293, -6.0331, -4.0427, -7.196, -6.1381, -5.0707, -5.23, -6.1736, -3.7916, -8.9293, -6.0331, -4.0427, -5.23, -6.1736, -3.7916, -6.94, -4.7756, 1.8221, -9.486, -5.7629, 1.3396, -8.9293, -6.0331, -4.0427, -6.94, -4.7756, 1.8221, -9.486, -5.7629, 1.3396, -6.94, -4.7756, 1.8221, -8.2159, -5.8538, 3.2636, -5.23, -6.1736, -3.7916, -2.9244, -7.2583, 0.7294, -5.0741, -5.4341, 2.602, -6.891, -8.2517, 4.9868, -10.8555, -11.0205, 1.3442, -9.9469, -8.8826, 3.2724, -2.9244, -7.2583, 0.7294, -3.8942, -7.8754, 3.4134, -5.0741, -5.4341, 2.602, -6.171, -10.9761, 3.1092, -10.8555, -11.0205, 1.3442, -6.891, -8.2517, 4.9868, -10.8555, -11.0205, 1.3442, -11.1017, -9.2623, 0.4619, -9.9469, -8.8826, 3.2724, -9.9469, -8.8826, 3.2724, -11.1017, -9.2623, 0.4619, -9.486, -5.7629, 1.3396, -8.9293, -6.0331, -4.0427, -9.486, -5.7629, 1.3396, -11.1017, -9.2623, 0.4619, -7.196, -6.1381, -5.0707, -7.5538, -9.9197, -5.6196, -5.23, -6.1736, -3.7916, -5.23, -6.1736, -3.7916, -5.2593, -10.9976, -3.4378, -3.1013, -9.8376, -0.2435, -5.23, -6.1736, -3.7916, -3.1013, -9.8376, -0.2435, -2.9244, -7.2583, 0.7294, -3.1013, -9.8376, -0.2435, -6.171, -10.9761, 3.1092, -3.8942, -7.8754, 3.4134, -5.2593, -10.9976, -3.4378, -6.171, -10.9761, 3.1092, -3.1013, -9.8376, -0.2435, -7.196, -6.1381, -5.0707, -9.4229, -8.852, -4.2898, -7.5538, -9.9197, -5.6196, -9.197, -11.0575, -2.9243, -5.2593, -10.9976, -3.4378, -7.5538, -9.9197, -5.6196, -11.1017, -9.2623, 0.4619, -9.197, -11.0575, -2.9243, -9.4229, -8.852, -4.2898, -8.9293, -6.0331, -4.0427, -9.4229, -8.852, -4.2898, -7.196, -6.1381, -5.0707, -5.23, -6.1736, -3.7916, -5.0741, -5.4341, 2.602, -6.94, -4.7756, 1.8221, -6.94, -4.7756, 1.8221, -5.0741, -5.4341, 2.602, -8.2159, -5.8538, 3.2636, -3.8942, -7.8754, 3.4134, -6.891, -8.2517, 4.9868, -5.0741, -5.4341, 2.602, -6.171, -10.9761, 3.1092, -6.891, -8.2517, 4.9868, -3.8942, -7.8754, 3.4134, -5.0741, -5.4341, 2.602, -6.891, -8.2517, 4.9868, -8.2159, -5.8538, 3.2636, -6.891, -8.2517, 4.9868, -9.9469, -8.8826, 3.2724, -8.2159, -5.8538, 3.2636, -9.197, -11.0575, -2.9243, -11.1017, -9.2623, 0.4619, -10.8555, -11.0205, 1.3442, -8.2159, -5.8538, 3.2636, -9.9469, -8.8826, 3.2724, -9.486, -5.7629, 1.3396, -10.8555, -11.0205, 1.3442, -6.171, -10.9761, 3.1092, -9.197, -11.0575, -2.9243, -9.197, -11.0575, -2.9243, -6.171, -10.9761, 3.1092, -5.2593, -10.9976, -3.4378, -7.5538, -9.9197, -5.6196, -5.2593, -10.9976, -3.4378, -5.23, -6.1736, -3.7916, -3.1013, -9.8376, -0.2435, -3.8942, -7.8754, 3.4134, -2.9244, -7.2583, 0.7294, -11.1017, -9.2623, 0.4619, -9.4229, -8.852, -4.2898, -8.9293, -6.0331, -4.0427, -9.4229, -8.852, -4.2898, -9.197, -11.0575, -2.9243, -7.5538, -9.9197, -5.6196, -11.6316, 0.1036, 0.6818, -9.0049, 4.1115, -4.3085, -9.4819, 3.7262, -2.36, -9.0049, 4.1115, -4.3085, -9.8519, -0.0997, -5.117, -6.383, 3.083, -6.2885, -11.6316, 0.1036, 0.6818, -9.8519, -0.0997, -5.117, -9.0049, 4.1115, -4.3085, -9.8519, -0.0997, -5.117, -9.5039, -2.4295, -4.3022, -7.2875, -0.7609, -6.9692, -11.6316, 0.1036, 0.6818, -6.0582, 0.7357, -0.4295, -7.8768, -0.5667, 0.773, -9.5039, -2.4295, -4.3022, -9.8519, -0.0997, -5.117, -10.9913, -2.8419, -0.0337, -6.383, 3.083, -6.2885, -9.8519, -0.0997, -5.117, -7.2875, -0.7609, -6.9692, -7.2875, -0.7609, -6.9692, -6.0582, 0.7357, -0.4295, -6.383, 3.083, -6.2885, -9.1507, 10.0214, 2.443, -9.6817, 9.3232, 4.0041, -11.3267, 7.27, -3.2423, -11.0655, 5.2684, 2.6561, -9.6817, 9.3232, 4.0041, -9.2996, 8.12, 4.6859, -6.6414, 7.3492, 0.485, -7.8834, 6.5942, -7.2347, -6.8687, 3.3884, -5.1631, -8.1349, 7.6649, -7.0766, -7.8834, 6.5942, -7.2347, -6.6414, 7.3492, 0.485, -9.2407, 9.0672, -4.5441, -6.6414, 7.3492, 0.485, -9.1507, 10.0214, 2.443, -11.0655, 5.2684, 2.6561, -6.6414, 7.3492, 0.485, -8.3874, 2.9757, -3.3206, -8.3874, 2.9757, -3.3206, -6.6414, 7.3492, 0.485, -6.8687, 3.3884, -5.1631, -11.0655, 5.2684, 2.6561, -9.2996, 8.12, 4.6859, -6.6414, 7.3492, 0.485, -6.6414, 7.3492, 0.485, -9.6817, 9.3232, 4.0041, -9.1507, 10.0214, 2.443, -8.3874, 2.9757, -3.3206, -11.3267, 7.27, -3.2423, -11.0655, 5.2684, 2.6561, 5.9153, -9.0165, 2.2716, 4.2904, -9.1046, -4.1913, 0.0395, -8.9229, -0.3363, 4.8304, -5.35, 0.1999, 5.9153, -9.0165, 2.2716, 2.9994, -6.3136, 0.2811, 2.9994, -6.3136, 0.2811, 1.2856, -8.4422, -4.7455, 4.8304, -5.35, 0.1999, 3.3186, -7.3432, -7.1334, 4.8304, -5.35, 0.1999, 1.2856, -8.4422, -4.7455, 1.2856, -8.4422, -4.7455, 2.9994, -6.3136, 0.2811, 0.0395, -8.9229, -0.3363, 0.0395, -8.9229, -0.3363, 2.9994, -6.3136, 0.2811, 5.9153, -9.0165, 2.2716, 5.9153, -9.0165, 2.2716, 4.8304, -5.35, 0.1999, 3.3186, -7.3432, -7.1334, 3.3186, -7.3432, -7.1334, 4.2904, -9.1046, -4.1913, 5.9153, -9.0165, 2.2716, 2.6118, -5.9819, 11.3619, 3.4108, -6.6716, 8.4153, -2.4892, -6.9244, 8.1778, 3.4108, -6.6716, 8.4153, 2.2416, -2.9565, 9.0557, -1.0088, -6.9891, 6.3366, -1.0088, -6.9891, 6.3366, 0.1961, -1.5043, 8.7832, -4.2329, -5.7155, 5.7494, 0.1961, -1.5043, 8.7832, -1.0088, -6.9891, 6.3366, 2.2416, -2.9565, 9.0557, -2.2434, -4.2397, 12.0657, 0.1961, -1.5043, 8.7832, 2.6118, -5.9819, 11.3619, 2.2416, -2.9565, 9.0557, 3.4108, -6.6716, 8.4153, 2.6118, -5.9819, 11.3619, 0.1961, -1.5043, 8.7832, -4.1596, -4.5181, 11.415, -5.8141, -3.3886, 8.5134, -4.1596, -4.5181, 11.415, 0.1961, -1.5043, 8.7832, -2.2434, -4.2397, 12.0657, 12.0524, 2.8359, 5.1428, 13.5461, 2.033, 7.4035, 11.7206, 3.5105, 11.3798, 11.7206, 3.5105, 11.3798, 14.2116, 0.4491, 9.8751, 13.278, 0.3212, 12.1688, 13.278, 0.3212, 12.1688, 10.855, 0.6056, 13.7994, 11.7206, 3.5105, 11.3798, 10.9282, -0.9222, 13.211, 11.9888, -2.6754, 11.0149, 9.2584, -1.2658, 7.7895, 8.2467, 4.519, 10.3253, 9.2584, -1.2658, 7.7895, 8.4455, 0.1876, 5.1001, 9.2584, -1.2658, 7.7895, 8.9723, 3.2555, 12.2379, 10.9282, -0.9222, 13.211, 13.5728, -1.9076, 9.0576, 13.5461, 2.033, 7.4035, 10.9648, 1.5503, 1.6627, 14.2116, 0.4491, 9.8751, 13.5461, 2.033, 7.4035, 13.5728, -1.9076, 9.0576, 10.4052, 2.9773, 3.572, 8.4455, 0.1876, 5.1001, 10.9648, 1.5503, 1.6627, 8.2467, 4.519, 10.3253, 8.4455, 0.1876, 5.1001, 10.4052, 2.9773, 3.572, 10.9648, 1.5503, 1.6627, 9.2584, -1.2658, 7.7895, 13.5728, -1.9076, 9.0576, 13.5728, -1.9076, 9.0576, 9.2584, -1.2658, 7.7895, 11.9888, -2.6754, 11.0149, -3.2235, -2.2677, 0.7972, 3.4944, -2.4771, 0.3322, -2.8159, -2.2844, -2.6257, 3.4944, -2.4771, 0.3322, 4.5246, -1.9645, 1.3231, 1.9757, 0.4311, -1.3038, 1.9757, 0.4311, -1.3038, 4.5246, -1.9645, 1.3231, 5.1108, -0.711, 1.6692, -4.0582, 0.8128, -1.4318, -2.8159, -2.2844, -2.6257, 1.9757, 0.4311, -1.3038, -4.0582, 0.8128, -1.4318, 1.9757, 0.4311, -1.3038, -2.9477, 1.4322, 0.9112, -2.1804, 0.5139, 3.1395, 4.2575, 1.0163, 3.8278, 1.2732, 0.1579, 4.8659, -2.9477, 1.4322, 0.9112, 4.2575, 1.0163, 3.8278, -2.1804, 0.5139, 3.1395, -7.8801, 0.3723, 5.3366, -2.2987, 1.4778, 3.7652, -5.2779, 4.2955, 1.9662, -2.2987, 1.4778, 3.7652, -1.7065, -0.2186, 5.3743, -2.5615, 5.8423, 8.9521, -2.5615, 5.8423, 8.9521, -1.7065, -0.2186, 5.3743, -1.5208, 3.9817, 10.617, -1.7065, -0.2186, 5.3743, -7.0266, 1.0495, 8.0152, -0.5401, 0.8708, 10.1675, -7.0266, 1.0495, 8.0152, -1.7065, -0.2186, 5.3743, -7.8801, 0.3723, 5.3366, -5.2779, 4.2955, 1.9662, -2.2987, 1.4778, 3.7652, -2.5615, 5.8423, 8.9521, -1.5208, 3.9817, 10.617, -0.5401, 0.8708, 10.1675, -5.0478, 4.1567, 9.4813, -5.0478, 4.1567, 9.4813, -0.5401, 0.8708, 10.1675, -7.0266, 1.0495, 8.0152, -7.0266, 1.0495, 8.0152, -5.8389, 4.7349, 7.3614, -5.0478, 4.1567, 9.4813, -3.0421, 8.313, -2.6173, -5.0142, 5.6803, -0.6736, -5.2206, 9.8167, 4.1997, -3.4964, 6.4844, -4.9228, -5.0142, 5.6803, -0.6736, -3.0421, 8.313, -2.6173, -7.8154, 8.2825, -2.0456, -3.0421, 8.313, -2.6173, -5.2206, 9.8167, 4.1997, -7.8154, 8.2825, -2.0456, -5.0142, 5.6803, -0.6736, -5.1159, 7.9637, -5.6151, -5.1159, 7.9637, -5.6151, -3.0421, 8.313, -2.6173, -7.8154, 8.2825, -2.0456, 0.0098, -1.1704, 17.1053, 3.0762, -0.3416, 15.7363, -3.7116, -0.7897, 14.9883, -3.7116, -0.7897, 14.9883, 3.0762, -0.3416, 15.7363, -4.2892, 0.1264, 13.0749, -4.2892, 0.1264, 13.0749, 1.1593, 3.0674, 15.587, -1.7077, 3.2978, 14.8044, 2.4921, 1.64, 16.6106, 1.1593, 3.0674, 15.587, 3.0762, -0.3416, 15.7363, 11.3266, -6.3156, -0.0128, 12.6605, -5.9165, 1.2989, 12.6632, -6.0205, -6.4125, 15.4971, -3.6762, -1.3775, 12.6605, -5.9165, 1.2989, 13.2784, -4.6106, 1.6966, 10.227, -2.8543, -1.9828, 9.0826, -3.7905, -9.639, 10.7214, -0.4548, -8.3733, 8.7178, -4.9267, -9.2378, 9.0826, -3.7905, -9.639, 10.227, -2.8543, -1.9828, 9.6461, -6.3103, -6.7213, 10.227, -2.8543, -1.9828, 11.3266, -6.3156, -0.0128, 15.4971, -3.6762, -1.3775, 10.227, -2.8543, -1.9828, 12.6718, -0.8277, -7.1369, 12.6718, -0.8277, -7.1369, 10.227, -2.8543, -1.9828, 10.7214, -0.4548, -8.3733, 15.4971, -3.6762, -1.3775, 13.2784, -4.6106, 1.6966, 10.227, -2.8543, -1.9828, 10.227, -2.8543, -1.9828, 12.6605, -5.9165, 1.2989, 11.3266, -6.3156, -0.0128, 12.6718, -0.8277, -7.1369, 12.6632, -6.0205, -6.4125, 15.4971, -3.6762, -1.3775, 1.3892, 5.383, -2.1743, -1.2133, 4.2264, -7.7362, 3.949, 6.4207, -7.8027, 2.4296, 1.6866, -4.1767, 1.3892, 5.383, -2.1743, 3.3662, 3.2772, -5.4098, 3.3662, 3.2772, -5.4098, 0.7703, 4.394, -10.3369, 2.4296, 1.6866, -4.1767, -1.6172, 2.2491, -10.8476, 2.4296, 1.6866, -4.1767, 0.7703, 4.394, -10.3369, 0.7703, 4.394, -10.3369, 3.3662, 3.2772, -5.4098, 3.949, 6.4207, -7.8027, 3.949, 6.4207, -7.8027, 3.3662, 3.2772, -5.4098, 1.3892, 5.383, -2.1743, 1.3892, 5.383, -2.1743, 2.4296, 1.6866, -4.1767, -1.6172, 2.2491, -10.8476, -1.6172, 2.2491, -10.8476, -1.2133, 4.2264, -7.7362, 1.3892, 5.383, -2.1743, 5.6136, 13.5452, -4.2014, 0.4722, 11.1832, 0.7252, 3.3415, 12.4917, -6.5833, 1.908, 8.8453, -2.45, 0.4722, 11.1832, 0.7252, 1.0158, 9.692, 1.8036, 6.1581, 10.4485, -6.5473, 3.3415, 12.4917, -6.5833, 1.908, 8.8453, -2.45, 6.1581, 10.4485, -6.5473, 1.908, 8.8453, -2.45, 7.138, 10.3195, -3.7085, 7.4264, 11.4437, -1.7448, 3.6368, 9.1563, 2.836, 5.8929, 11.034, 1.7742, 7.138, 10.3195, -3.7085, 3.6368, 9.1563, 2.836, 7.4264, 11.4437, -1.7448, -11.6316, 0.1036, 0.6818, -10.9913, -2.8419, -0.0337, -9.8519, -0.0997, -5.117, -10.9913, -2.8419, -0.0337, -7.8768, -0.5667, 0.773, -9.5039, -2.4295, -4.3022, -9.5039, -2.4295, -4.3022, -6.0582, 0.7357, -0.4295, -7.2875, -0.7609, -6.9692, -6.0582, 0.7357, -0.4295, -9.5039, -2.4295, -4.3022, -7.8768, -0.5667, 0.773, -9.4819, 3.7262, -2.36, -6.0582, 0.7357, -0.4295, -11.6316, 0.1036, 0.6818, -7.8768, -0.5667, 0.773, -10.9913, -2.8419, -0.0337, -11.6316, 0.1036, 0.6818, -6.0582, 0.7357, -0.4295, -9.0049, 4.1115, -4.3085, -6.383, 3.083, -6.2885, -9.0049, 4.1115, -4.3085, -6.0582, 0.7357, -0.4295, -9.4819, 3.7262, -2.36 )

[node name="ast_shards_0" instance=ExtResource( 1 )]

[node name="StaticBody" type="StaticBody" parent="ast_shards_0" index="0"]

[node name="CollisionShape" type="CollisionShape" parent="ast_shards_0/StaticBody" index="0"]
shape = SubResource( 1 )
