[gd_scene load_steps=3 format=2]

[ext_resource path="res://blokoj/asteroidoj/resursoj/ast_ice_4.glb" type="PackedScene" id=1]

[sub_resource type="ConcavePolygonShape" id=1]
data = PoolVector3Array( -0.1487, 0.725, -0.4435, 0.2337, 0.7753, -0.3008, -0.065, 0.798, -0.25, -0.1487, 0.725, -0.4435, -0.065, 0.798, -0.25, -0.3906, 0.6887, -0.3546, -0.3906, 0.6887, -0.3546, 0.0006, 0.8667, 0.2264, -0.4189, 0.6852, -0.1272, 0.0006, 0.8667, 0.2264, -0.1492, 0.8046, 0.2189, -0.4189, 0.6852, -0.1272, -0.4189, 0.6852, -0.1272, -0.1492, 0.8046, 0.2189, -0.3965, 0.6461, 0.1924, -0.4189, 0.6852, -0.1272, -0.3965, 0.6461, 0.1924, -0.7198, 0.413, -0.1692, 0.0966, 0.8689, 0.1065, 0.3884, 0.8301, 0.147, 0.2859, 0.8474, 0.3682, 0.2859, 0.8474, 0.3682, 0.5038, 0.7814, 0.2232, 0.44, 0.7508, 0.3944, -0.1492, 0.8046, 0.2189, 0.0006, 0.8667, 0.2264, 0.0969, 0.8298, 0.4645, -0.2803, 0.6669, 0.421, 0.0969, 0.8298, 0.4645, 0.0453, 0.6858, 0.723, 0.2585, 0.6453, -0.4787, 0.3826, 0.4878, -0.5687, 0.4363, 0.6353, -0.3798, -0.0787, 0.5265, -0.6544, 0.1045, 0.3829, -0.7668, 0.2585, 0.6453, -0.4787, -0.0787, 0.5265, -0.6544, -0.3906, 0.6887, -0.3546, -0.6626, 0.382, -0.5113, -0.7198, 0.413, -0.1692, -0.4745, 0.4363, 0.6244, -0.6082, 0.3421, 0.4891, -0.4745, 0.4363, 0.6244, -0.163, 0.6387, 0.7024, -0.1169, 0.5585, 0.9101, 0.0969, 0.8298, 0.4645, 0.2859, 0.8474, 0.3682, 0.2239, 0.7507, 0.5777, 0.3628, 0.8148, -0.1226, 0.6347, 0.5455, -0.1186, 0.5038, 0.7814, 0.2232, 0.4363, 0.6353, -0.3798, 0.3826, 0.4878, -0.5687, 0.7302, 0.3789, -0.1587, 0.4638, -0.5102, 0.6975, 0.4821, -0.6271, 0.6376, 0.2981, -0.5274, 0.7709, 0.4638, -0.5102, 0.6975, 0.2981, -0.5274, 0.7709, -0.0222, -0.3955, 0.9854, 0.3218, -0.236, 0.9084, 0.4638, -0.5102, 0.6975, -0.0222, -0.3955, 0.9854, 0.3826, 0.515, 0.7141, 0.0557, 0.5837, 0.8683, 0.2239, 0.7507, 0.5777, 0.1258, 0.0079, 1.0879, 0.3218, -0.236, 0.9084, -0.1435, -0.165, 1.1588, 0.3692, 0.0761, 0.9103, 0.1258, 0.0079, 1.0879, 0.1923, 0.2424, 1.0128, 0.1923, 0.2424, 1.0128, -0.1505, 0.0376, 1.1761, -0.0595, 0.4347, 1.0348, -0.0222, -0.3955, 0.9854, -0.2435, -0.5001, 0.8944, -0.258, -0.3223, 1.0659, -0.0595, 0.4347, 1.0348, -0.2382, 0.2811, 1.1048, -0.1169, 0.5585, 0.9101, -0.1505, 0.0376, 1.1761, -0.4907, -0.2471, 0.9588, -0.4946, 0.0533, 0.9617, -0.2382, 0.2811, 1.1048, -0.4946, 0.0533, 0.9617, -0.356, 0.323, 0.9765, 0.5889, -0.0734, 0.6608, 0.3692, 0.0761, 0.9103, 0.6047, 0.2631, 0.5461, 0.2239, 0.7507, 0.5777, 0.0557, 0.5837, 0.8683, 0.0453, 0.6858, 0.723, 0.0557, 0.5837, 0.8683, -0.1169, 0.5585, 0.9101, 0.0453, 0.6858, 0.723, -0.1169, 0.5585, 0.9101, -0.356, 0.323, 0.9765, -0.4745, 0.4363, 0.6244, -0.4745, 0.4363, 0.6244, -0.356, 0.323, 0.9765, -0.6082, 0.3421, 0.4891, -0.356, 0.323, 0.9765, -0.4946, 0.0533, 0.9617, -0.6082, 0.3421, 0.4891, -0.4106, -0.4008, 0.9405, -0.524, -0.54, 0.6493, -0.4907, -0.2471, 0.9588, 0.0034, -0.652, 0.7286, -0.1903, -0.7674, 0.542, -0.2435, -0.5001, 0.8944, 0.2981, -0.5274, 0.7709, 0.3943, -0.8451, 0.4789, 0.0034, -0.652, 0.7286, -0.6073, -0.3938, 0.602, -0.7109, -0.5132, 0.1652, -0.6975, -0.1782, 0.4225, -0.6152, 0.1521, 0.6255, -0.6975, -0.1782, 0.4225, -0.7629, 0.1625, 0.1734, -0.6082, 0.3421, 0.4891, -0.6152, 0.1521, 0.6255, -0.7629, 0.1625, 0.1734, -0.6975, -0.1782, 0.4225, -0.8023, -0.1574, -0.0485, -0.8229, 0.0594, -0.1207, -0.7629, 0.1625, 0.1734, -0.6975, -0.1782, 0.4225, -0.8229, 0.0594, -0.1207, -0.6082, 0.3421, 0.4891, -0.7629, 0.1625, 0.1734, -0.8161, 0.2651, -0.2759, -0.8023, -0.1574, -0.0485, -0.7109, -0.5132, 0.1652, -0.7348, -0.4826, -0.178, -0.8229, 0.0594, -0.1207, -0.8023, -0.1574, -0.0485, -0.8026, -0.0795, -0.3484, -0.6797, 0.4679, -0.4002, -0.8161, 0.2651, -0.2759, -0.7281, 0.25, -0.4996, -0.6797, 0.4679, -0.4002, -0.7281, 0.25, -0.4996, -0.6626, 0.382, -0.5113, -0.524, -0.54, 0.6493, -0.6343, -0.6127, 0.3163, -0.6073, -0.3938, 0.602, -0.4907, -0.2471, 0.9588, -0.6073, -0.3938, 0.602, -0.583, -0.0913, 0.7956, -0.6082, 0.3421, 0.4891, -0.4946, 0.0533, 0.9617, -0.6152, 0.1521, 0.6255, -0.6361, -0.5079, -0.3716, -0.5479, -0.5192, -0.4645, -0.6709, -0.0145, -0.5392, -0.7348, -0.4826, -0.178, -0.5995, -0.7395, -0.1157, -0.6361, -0.5079, -0.3716, -0.195, -0.9814, -0.1946, -0.3858, -0.8203, -0.2705, -0.3455, -0.9776, -0.0642, -0.195, -0.9814, -0.1946, -0.1646, -1.0299, 0.0021, 0.1282, -0.98, -0.3265, 0.4891, -1.0005, -0.2104, 0.1282, -0.98, -0.3265, 0.1755, -1.0257, 0.0739, 0.4363, -0.9528, -0.3755, 0.1282, -0.98, -0.3265, 0.4891, -1.0005, -0.2104, -0.1646, -1.0299, 0.0021, -0.3455, -0.9776, -0.0642, -0.139, -1.009, 0.1908, -0.3455, -0.9776, -0.0642, -0.3908, -0.8799, 0.1875, -0.139, -1.009, 0.1908, 0.1755, -1.0257, 0.0739, -0.1646, -1.0299, 0.0021, -0.139, -1.009, 0.1908, 0.1755, -1.0257, 0.0739, 0.167, -1.0112, 0.2207, 0.5192, -0.9978, 0.0566, 0.1755, -1.0257, 0.0739, -0.139, -1.009, 0.1908, 0.167, -1.0112, 0.2207, 0.167, -1.0112, 0.2207, -0.139, -1.009, 0.1908, -0.1174, -0.9541, 0.3145, 0.167, -1.0112, 0.2207, 0.3943, -0.8451, 0.4789, 0.5192, -0.9978, 0.0566, -0.3908, -0.8799, 0.1875, -0.4797, -0.6218, 0.5713, -0.1174, -0.9541, 0.3145, -0.2097, -0.6762, -0.5667, -0.5479, -0.5192, -0.4645, -0.3858, -0.8203, -0.2705, -0.0252, -0.9066, -0.4383, -0.3858, -0.8203, -0.2705, -0.195, -0.9814, -0.1946, -0.0252, -0.9066, -0.4383, -0.195, -0.9814, -0.1946, 0.1282, -0.98, -0.3265, 0.1846, -0.7593, -0.6612, -0.0252, -0.9066, -0.4383, 0.3163, -0.86, -0.5345, 0.3163, -0.86, -0.5345, -0.0252, -0.9066, -0.4383, 0.1282, -0.98, -0.3265, 0.4363, -0.9528, -0.3755, 0.3163, -0.86, -0.5345, 0.1282, -0.98, -0.3265, 0.4363, -0.9528, -0.3755, 0.4891, -1.0005, -0.2104, 0.5542, -0.8903, -0.3118, 0.6196, -0.8976, 0.1645, 0.5192, -0.9978, 0.0566, 0.3943, -0.8451, 0.4789, 0.544, -0.6532, 0.5472, 0.3943, -0.8451, 0.4789, 0.4821, -0.6271, 0.6376, 0.2313, -0.8863, 0.4746, 0.0034, -0.652, 0.7286, 0.3943, -0.8451, 0.4789, -0.3908, -0.8799, 0.1875, -0.6343, -0.6127, 0.3163, -0.4797, -0.6218, 0.5713, -0.3858, -0.8203, -0.2705, -0.5479, -0.5192, -0.4645, -0.5995, -0.7395, -0.1157, 0.5542, -0.8903, -0.3118, 0.643, -0.9061, 0.0462, 0.7164, -0.6236, -0.2914, 0.6747, -0.3663, -0.5082, 0.7164, -0.6236, -0.2914, 0.8102, -0.5125, -0.069, 0.7302, 0.3789, -0.1587, 0.6949, -0.0697, -0.4621, 0.7874, 0.1604, -0.1071, 0.8357, -0.305, 0.144, 0.8102, -0.5125, -0.069, 0.8067, -0.5856, 0.1044, 0.7874, 0.1604, -0.1071, 0.8102, -0.5125, -0.069, 0.8357, -0.305, 0.144, 0.7234, 0.475, 0.2205, 0.7874, 0.1604, -0.1071, 0.8357, -0.305, 0.144, 0.7302, 0.3789, -0.1587, 0.7874, 0.1604, -0.1071, 0.7234, 0.475, 0.2205, 0.6347, 0.5455, -0.1186, 0.7302, 0.3789, -0.1587, 0.7234, 0.475, 0.2205, 0.8067, -0.5856, 0.1044, 0.6196, -0.8976, 0.1645, 0.544, -0.6532, 0.5472, 0.7416, -0.3782, 0.4364, 0.8067, -0.5856, 0.1044, 0.544, -0.6532, 0.5472, 0.8357, -0.305, 0.144, 0.8067, -0.5856, 0.1044, 0.7416, -0.3782, 0.4364, 0.7234, 0.475, 0.2205, 0.8357, -0.305, 0.144, 0.7808, -0.203, 0.3658, 0.3826, 0.4878, -0.5687, 0.4592, 0.1557, -0.6853, 0.7302, 0.3789, -0.1587, 0.4363, 0.6353, -0.3798, 0.7302, 0.3789, -0.1587, 0.6347, 0.5455, -0.1186, 0.5038, 0.7814, 0.2232, 0.6347, 0.5455, -0.1186, 0.5989, 0.6689, 0.2543, 0.5038, 0.7814, 0.2232, 0.5989, 0.6689, 0.2543, 0.44, 0.7508, 0.3944, -0.4907, -0.2471, 0.9588, -0.258, -0.3223, 1.0659, -0.4106, -0.4008, 0.9405, -0.4907, -0.2471, 0.9588, -0.1435, -0.165, 1.1588, -0.258, -0.3223, 1.0659, 0.643, -0.9061, 0.0462, 0.5192, -0.9978, 0.0566, 0.6196, -0.8976, 0.1645, -0.5479, -0.5192, -0.4645, -0.2097, -0.6762, -0.5667, -0.2636, -0.5835, -0.5935, -0.5162, -0.0449, -0.6307, 0.092, 0.0273, -0.8802, -0.542, 0.1499, -0.6245, -0.5162, -0.0449, -0.6307, 0.0754, -0.1278, -0.8702, 0.092, 0.0273, -0.8802, -0.542, 0.1499, -0.6245, 0.092, 0.0273, -0.8802, -0.4163, 0.3351, -0.6508, -0.2636, -0.5835, -0.5935, 0.2147, -0.3876, -0.836, 0.0754, -0.1278, -0.8702, -0.2746, -0.3356, -0.6755, -0.2636, -0.5835, -0.5935, 0.0754, -0.1278, -0.8702, -0.2097, -0.6762, -0.5667, 0.1846, -0.7593, -0.6612, 0.2147, -0.3876, -0.836, 0.0754, -0.1278, -0.8702, 0.2147, -0.3876, -0.836, 0.2471, -0.0427, -0.893, 0.0491, 0.2534, -0.8284, 0.2471, -0.0427, -0.893, 0.1045, 0.3829, -0.7668, 0.1846, -0.7593, -0.6612, 0.3163, -0.86, -0.5345, 0.2797, -0.6577, -0.7049, 0.2147, -0.3876, -0.836, 0.2797, -0.6577, -0.7049, 0.3424, -0.3427, -0.8333, 0.2471, -0.0427, -0.893, 0.3933, -0.1789, -0.8276, 0.4592, 0.1557, -0.6853, -0.5479, -0.5192, -0.4645, -0.2746, -0.3356, -0.6755, -0.5162, -0.0449, -0.6307, -0.6709, -0.0145, -0.5392, -0.5479, -0.5192, -0.4645, -0.5162, -0.0449, -0.6307, 0.1045, 0.3829, -0.7668, 0.4592, 0.1557, -0.6853, 0.3826, 0.4878, -0.5687, 0.3424, -0.3427, -0.8333, 0.6747, -0.3663, -0.5082, 0.3933, -0.1789, -0.8276, -0.2097, -0.6762, -0.5667, -0.0252, -0.9066, -0.4383, 0.1846, -0.7593, -0.6612, 0.2585, 0.6453, -0.4787, 0.4363, 0.6353, -0.3798, 0.2337, 0.7753, -0.3008, 0.2585, 0.6453, -0.4787, 0.2337, 0.7753, -0.3008, -0.1487, 0.725, -0.4435, -0.3906, 0.6887, -0.3546, -0.6797, 0.4679, -0.4002, -0.6626, 0.382, -0.5113, 0.2337, 0.7753, -0.3008, 0.4363, 0.6353, -0.3798, 0.3628, 0.8148, -0.1226, 0.3628, 0.8148, -0.1226, -0.065, 0.798, -0.25, 0.2337, 0.7753, -0.3008, -0.3906, 0.6887, -0.3546, -0.4189, 0.6852, -0.1272, -0.6797, 0.4679, -0.4002, 0.3628, 0.8148, -0.1226, 0.5038, 0.7814, 0.2232, 0.3884, 0.8301, 0.147, -0.065, 0.798, -0.25, 0.3628, 0.8148, -0.1226, 0.0966, 0.8689, 0.1065, -0.065, 0.798, -0.25, 0.0006, 0.8667, 0.2264, -0.3906, 0.6887, -0.3546, 0.3628, 0.8148, -0.1226, 0.3884, 0.8301, 0.147, 0.0966, 0.8689, 0.1065, 0.0966, 0.8689, 0.1065, 0.0006, 0.8667, 0.2264, -0.065, 0.798, -0.25, 0.3884, 0.8301, 0.147, 0.5038, 0.7814, 0.2232, 0.2859, 0.8474, 0.3682, 0.0966, 0.8689, 0.1065, 0.2859, 0.8474, 0.3682, 0.0006, 0.8667, 0.2264, -0.1492, 0.8046, 0.2189, -0.2803, 0.6669, 0.421, -0.3965, 0.6461, 0.1924, 0.0006, 0.8667, 0.2264, 0.2859, 0.8474, 0.3682, 0.0969, 0.8298, 0.4645, -0.1492, 0.8046, 0.2189, 0.0969, 0.8298, 0.4645, -0.2803, 0.6669, 0.421, -0.2803, 0.6669, 0.421, -0.4745, 0.4363, 0.6244, -0.3965, 0.6461, 0.1924, 0.1045, 0.3829, -0.7668, 0.3826, 0.4878, -0.5687, 0.2585, 0.6453, -0.4787, -0.0787, 0.5265, -0.6544, 0.2585, 0.6453, -0.4787, -0.1487, 0.725, -0.4435, -0.1487, 0.725, -0.4435, -0.3906, 0.6887, -0.3546, -0.0787, 0.5265, -0.6544, -0.4189, 0.6852, -0.1272, -0.7198, 0.413, -0.1692, -0.6797, 0.4679, -0.4002, -0.3965, 0.6461, 0.1924, -0.4745, 0.4363, 0.6244, -0.7198, 0.413, -0.1692, -0.2803, 0.6669, 0.421, -0.163, 0.6387, 0.7024, -0.4745, 0.4363, 0.6244, -0.2803, 0.6669, 0.421, 0.0453, 0.6858, 0.723, -0.163, 0.6387, 0.7024, 0.2859, 0.8474, 0.3682, 0.44, 0.7508, 0.3944, 0.2239, 0.7507, 0.5777, 0.0969, 0.8298, 0.4645, 0.2239, 0.7507, 0.5777, 0.0453, 0.6858, 0.723, 0.4363, 0.6353, -0.3798, 0.6347, 0.5455, -0.1186, 0.3628, 0.8148, -0.1226, 0.5889, -0.0734, 0.6608, 0.3218, -0.236, 0.9084, 0.3692, 0.0761, 0.9103, 0.3692, 0.0761, 0.9103, 0.2909, 0.3856, 0.9005, 0.6047, 0.2631, 0.5461, 0.2981, -0.5274, 0.7709, 0.0034, -0.652, 0.7286, -0.0222, -0.3955, 0.9854, 0.3692, 0.0761, 0.9103, 0.3218, -0.236, 0.9084, 0.1258, 0.0079, 1.0879, 0.3692, 0.0761, 0.9103, 0.1923, 0.2424, 1.0128, 0.2909, 0.3856, 0.9005, 0.2909, 0.3856, 0.9005, 0.0557, 0.5837, 0.8683, 0.3826, 0.515, 0.7141, 0.3218, -0.236, 0.9084, -0.0222, -0.3955, 0.9854, -0.1435, -0.165, 1.1588, 0.1923, 0.2424, 1.0128, -0.0595, 0.4347, 1.0348, 0.2909, 0.3856, 0.9005, 0.2909, 0.3856, 0.9005, -0.0595, 0.4347, 1.0348, 0.0557, 0.5837, 0.8683, -0.1435, -0.165, 1.1588, -0.1505, 0.0376, 1.1761, 0.1258, 0.0079, 1.0879, 0.1258, 0.0079, 1.0879, -0.1505, 0.0376, 1.1761, 0.1923, 0.2424, 1.0128, -0.0595, 0.4347, 1.0348, -0.1169, 0.5585, 0.9101, 0.0557, 0.5837, 0.8683, 0.0034, -0.652, 0.7286, -0.2435, -0.5001, 0.8944, -0.0222, -0.3955, 0.9854, -0.0222, -0.3955, 0.9854, -0.258, -0.3223, 1.0659, -0.1435, -0.165, 1.1588, -0.1505, 0.0376, 1.1761, -0.2382, 0.2811, 1.1048, -0.0595, 0.4347, 1.0348, -0.2382, 0.2811, 1.1048, -0.356, 0.323, 0.9765, -0.1169, 0.5585, 0.9101, -0.2435, -0.5001, 0.8944, -0.4106, -0.4008, 0.9405, -0.258, -0.3223, 1.0659, -0.1435, -0.165, 1.1588, -0.4907, -0.2471, 0.9588, -0.1505, 0.0376, 1.1761, -0.4797, -0.6218, 0.5713, -0.2435, -0.5001, 0.8944, -0.1903, -0.7674, 0.542, -0.4106, -0.4008, 0.9405, -0.2435, -0.5001, 0.8944, -0.4797, -0.6218, 0.5713, -0.1505, 0.0376, 1.1761, -0.4946, 0.0533, 0.9617, -0.2382, 0.2811, 1.1048, 0.5889, -0.0734, 0.6608, 0.4638, -0.5102, 0.6975, 0.3218, -0.236, 0.9084, 0.6047, 0.2631, 0.5461, 0.2909, 0.3856, 0.9005, 0.3826, 0.515, 0.7141, 0.3826, 0.515, 0.7141, 0.2239, 0.7507, 0.5777, 0.44, 0.7508, 0.3944, 0.0453, 0.6858, 0.723, -0.1169, 0.5585, 0.9101, -0.163, 0.6387, 0.7024, -0.4907, -0.2471, 0.9588, -0.583, -0.0913, 0.7956, -0.4946, 0.0533, 0.9617, -0.4797, -0.6218, 0.5713, -0.524, -0.54, 0.6493, -0.4106, -0.4008, 0.9405, 0.7874, 0.1604, -0.1071, 0.6747, -0.3663, -0.5082, 0.8102, -0.5125, -0.069, 0.7874, 0.1604, -0.1071, 0.6949, -0.0697, -0.4621, 0.6747, -0.3663, -0.5082, 0.4821, -0.6271, 0.6376, 0.3943, -0.8451, 0.4789, 0.2981, -0.5274, 0.7709, -0.6343, -0.6127, 0.3163, -0.7109, -0.5132, 0.1652, -0.6073, -0.3938, 0.602, -0.6073, -0.3938, 0.602, -0.6975, -0.1782, 0.4225, -0.583, -0.0913, 0.7956, -0.6975, -0.1782, 0.4225, -0.7109, -0.5132, 0.1652, -0.8023, -0.1574, -0.0485, -0.7629, 0.1625, 0.1734, -0.8229, 0.0594, -0.1207, -0.8161, 0.2651, -0.2759, -0.6082, 0.3421, 0.4891, -0.8161, 0.2651, -0.2759, -0.7198, 0.413, -0.1692, -0.7109, -0.5132, 0.1652, -0.7036, -0.6128, -0.003, -0.7348, -0.4826, -0.178, -0.8023, -0.1574, -0.0485, -0.7348, -0.4826, -0.178, -0.8026, -0.0795, -0.3484, -0.8229, 0.0594, -0.1207, -0.8026, -0.0795, -0.3484, -0.8161, 0.2651, -0.2759, -0.7198, 0.413, -0.1692, -0.8161, 0.2651, -0.2759, -0.6797, 0.4679, -0.4002, -0.8161, 0.2651, -0.2759, -0.8026, -0.0795, -0.3484, -0.7281, 0.25, -0.4996, -0.7348, -0.4826, -0.178, -0.6361, -0.5079, -0.3716, -0.8026, -0.0795, -0.3484, -0.8026, -0.0795, -0.3484, -0.6709, -0.0145, -0.5392, -0.7281, 0.25, -0.4996, -0.524, -0.54, 0.6493, -0.6073, -0.3938, 0.602, -0.4907, -0.2471, 0.9588, -0.583, -0.0913, 0.7956, -0.6975, -0.1782, 0.4225, -0.6152, 0.1521, 0.6255, -0.4946, 0.0533, 0.9617, -0.583, -0.0913, 0.7956, -0.6152, 0.1521, 0.6255, -0.8026, -0.0795, -0.3484, -0.6361, -0.5079, -0.3716, -0.6709, -0.0145, -0.5392, -0.5995, -0.7395, -0.1157, -0.5479, -0.5192, -0.4645, -0.6361, -0.5079, -0.3716, -0.7036, -0.6128, -0.003, -0.5995, -0.7395, -0.1157, -0.7348, -0.4826, -0.178, -0.7036, -0.6128, -0.003, -0.564, -0.8076, 0.0479, -0.5995, -0.7395, -0.1157, -0.7109, -0.5132, 0.1652, -0.6343, -0.6127, 0.3163, -0.7036, -0.6128, -0.003, -0.564, -0.8076, 0.0479, -0.7036, -0.6128, -0.003, -0.6343, -0.6127, 0.3163, -0.4797, -0.6218, 0.5713, -0.6343, -0.6127, 0.3163, -0.524, -0.54, 0.6493, -0.3455, -0.9776, -0.0642, -0.1646, -1.0299, 0.0021, -0.195, -0.9814, -0.1946, 0.1282, -0.98, -0.3265, -0.1646, -1.0299, 0.0021, 0.1755, -1.0257, 0.0739, -0.564, -0.8076, 0.0479, -0.3908, -0.8799, 0.1875, -0.3455, -0.9776, -0.0642, 0.1755, -1.0257, 0.0739, 0.5192, -0.9978, 0.0566, 0.4891, -1.0005, -0.2104, 0.167, -1.0112, 0.2207, 0.2313, -0.8863, 0.4746, 0.3943, -0.8451, 0.4789, -0.3908, -0.8799, 0.1875, -0.1174, -0.9541, 0.3145, -0.139, -1.009, 0.1908, -0.1174, -0.9541, 0.3145, 0.2313, -0.8863, 0.4746, 0.167, -1.0112, 0.2207, -0.1174, -0.9541, 0.3145, -0.4797, -0.6218, 0.5713, -0.1903, -0.7674, 0.542, -0.1174, -0.9541, 0.3145, -0.1903, -0.7674, 0.542, 0.2313, -0.8863, 0.4746, 0.3943, -0.8451, 0.4789, 0.544, -0.6532, 0.5472, 0.6196, -0.8976, 0.1645, 0.2313, -0.8863, 0.4746, -0.1903, -0.7674, 0.542, 0.0034, -0.652, 0.7286, -0.6343, -0.6127, 0.3163, -0.3908, -0.8799, 0.1875, -0.564, -0.8076, 0.0479, -0.5995, -0.7395, -0.1157, -0.564, -0.8076, 0.0479, -0.3455, -0.9776, -0.0642, -0.3858, -0.8203, -0.2705, -0.5995, -0.7395, -0.1157, -0.3455, -0.9776, -0.0642, 0.5542, -0.8903, -0.3118, 0.7164, -0.6236, -0.2914, 0.5108, -0.765, -0.4869, 0.5108, -0.765, -0.4869, 0.7164, -0.6236, -0.2914, 0.6747, -0.3663, -0.5082, 0.4592, 0.1557, -0.6853, 0.6949, -0.0697, -0.4621, 0.7302, 0.3789, -0.1587, 0.4891, -1.0005, -0.2104, 0.643, -0.9061, 0.0462, 0.5542, -0.8903, -0.3118, 0.3826, 0.515, 0.7141, 0.5989, 0.6689, 0.2543, 0.7234, 0.475, 0.2205, 0.44, 0.7508, 0.3944, 0.5989, 0.6689, 0.2543, 0.3826, 0.515, 0.7141, 0.7164, -0.6236, -0.2914, 0.643, -0.9061, 0.0462, 0.8067, -0.5856, 0.1044, 0.7164, -0.6236, -0.2914, 0.8067, -0.5856, 0.1044, 0.8102, -0.5125, -0.069, 0.643, -0.9061, 0.0462, 0.6196, -0.8976, 0.1645, 0.8067, -0.5856, 0.1044, 0.6347, 0.5455, -0.1186, 0.7234, 0.475, 0.2205, 0.5989, 0.6689, 0.2543, 0.8357, -0.305, 0.144, 0.7416, -0.3782, 0.4364, 0.7808, -0.203, 0.3658, 0.7808, -0.203, 0.3658, 0.7416, -0.3782, 0.4364, 0.5889, -0.0734, 0.6608, 0.7234, 0.475, 0.2205, 0.7808, -0.203, 0.3658, 0.6047, 0.2631, 0.5461, 0.7808, -0.203, 0.3658, 0.5889, -0.0734, 0.6608, 0.6047, 0.2631, 0.5461, 0.4821, -0.6271, 0.6376, 0.7416, -0.3782, 0.4364, 0.544, -0.6532, 0.5472, 0.4638, -0.5102, 0.6975, 0.7416, -0.3782, 0.4364, 0.4821, -0.6271, 0.6376, 0.7234, 0.475, 0.2205, 0.6047, 0.2631, 0.5461, 0.3826, 0.515, 0.7141, 0.4363, -0.9528, -0.3755, 0.5542, -0.8903, -0.3118, 0.5108, -0.765, -0.4869, 0.3933, -0.1789, -0.8276, 0.6747, -0.3663, -0.5082, 0.6949, -0.0697, -0.4621, 0.7416, -0.3782, 0.4364, 0.4638, -0.5102, 0.6975, 0.5889, -0.0734, 0.6608, 0.1045, 0.3829, -0.7668, -0.4163, 0.3351, -0.6508, 0.0491, 0.2534, -0.8284, 0.1045, 0.3829, -0.7668, -0.0787, 0.5265, -0.6544, -0.4163, 0.3351, -0.6508, 0.4891, -1.0005, -0.2104, 0.5192, -0.9978, 0.0566, 0.643, -0.9061, 0.0462, -0.2636, -0.5835, -0.5935, -0.2746, -0.3356, -0.6755, -0.5479, -0.5192, -0.4645, -0.6626, 0.382, -0.5113, -0.4163, 0.3351, -0.6508, -0.0787, 0.5265, -0.6544, -0.2746, -0.3356, -0.6755, 0.0754, -0.1278, -0.8702, -0.5162, -0.0449, -0.6307, -0.2097, -0.6762, -0.5667, 0.2147, -0.3876, -0.836, -0.2636, -0.5835, -0.5935, 0.092, 0.0273, -0.8802, 0.0491, 0.2534, -0.8284, -0.4163, 0.3351, -0.6508, 0.3424, -0.3427, -0.8333, 0.2471, -0.0427, -0.893, 0.2147, -0.3876, -0.836, 0.3933, -0.1789, -0.8276, 0.2471, -0.0427, -0.893, 0.3424, -0.3427, -0.8333, 0.0754, -0.1278, -0.8702, 0.2471, -0.0427, -0.893, 0.092, 0.0273, -0.8802, 0.092, 0.0273, -0.8802, 0.2471, -0.0427, -0.893, 0.0491, 0.2534, -0.8284, 0.1846, -0.7593, -0.6612, 0.2797, -0.6577, -0.7049, 0.2147, -0.3876, -0.836, -0.4163, 0.3351, -0.6508, -0.7281, 0.25, -0.4996, -0.542, 0.1499, -0.6245, -0.4163, 0.3351, -0.6508, -0.6626, 0.382, -0.5113, -0.7281, 0.25, -0.4996, 0.2471, -0.0427, -0.893, 0.4592, 0.1557, -0.6853, 0.1045, 0.3829, -0.7668, -0.5162, -0.0449, -0.6307, -0.542, 0.1499, -0.6245, -0.6709, -0.0145, -0.5392, -0.6709, -0.0145, -0.5392, -0.542, 0.1499, -0.6245, -0.7281, 0.25, -0.4996, 0.3933, -0.1789, -0.8276, 0.6949, -0.0697, -0.4621, 0.4592, 0.1557, -0.6853, 0.5108, -0.765, -0.4869, 0.6747, -0.3663, -0.5082, 0.3424, -0.3427, -0.8333, 0.2797, -0.6577, -0.7049, 0.5108, -0.765, -0.4869, 0.3424, -0.3427, -0.8333, 0.3163, -0.86, -0.5345, 0.5108, -0.765, -0.4869, 0.2797, -0.6577, -0.7049, 0.4363, -0.9528, -0.3755, 0.5108, -0.765, -0.4869, 0.3163, -0.86, -0.5345, -0.3858, -0.8203, -0.2705, -0.0252, -0.9066, -0.4383, -0.2097, -0.6762, -0.5667 )

[node name="ast_ice_4" instance=ExtResource( 1 )]

[node name="StaticBody" type="StaticBody" parent="ast_ice_4" index="0"]

[node name="CollisionShape" type="CollisionShape" parent="ast_ice_4/StaticBody" index="0"]
shape = SubResource( 1 )
