[gd_scene load_steps=3 format=2]

[ext_resource path="res://kerno/menuo/resursoj/fonts/Buttons_stylel.tres" type="StyleBox" id=4]

[sub_resource type="DynamicFont" id=1]

[node name="Profilo" type="Button"]
margin_right = 32.0
margin_bottom = 32.0
rect_min_size = Vector2( 32, 32 )
custom_styles/focus = ExtResource( 4 )
custom_fonts/font = SubResource( 1 )
shortcut_in_tooltip = false
__meta__ = {
"_edit_group_": true,
"_edit_use_anchors_": false
}
